{
    "data": [
        {
            "_id": "5ee344bb8f95f30cbc9df847",
            "kyHieuTruong": "BVH",
            "namHoc": 2023,
            "maNganh": "7480201",
            "chiTieuTheoKetQuaThiTHPT": 355,
            "chiTieuTheoPhuongThucKetHop": 250,
            "createdAt": "2020-06-12T09:02:51.704Z",
            "updatedAt": "2023-07-19T09:16:59.950Z",
            "__v": 0,
            "phanTramTroi": 330,
            "thuTu": 1,
            "diemSanTheoPhuongThucKetHop": 27.44,
            "chiTieuTheoDGNL": 125,
            "chiTieu": 605,
            "nganhHoc": {
                "toHop": [
                    "A00",
                    "A01"
                ],
                "_id": "5edb1aaca01f004b8ad7859f",
                "maNganh": "7480201",
                "tenNganh": "Công nghệ thông tin",
                "moTa": "<p></p>",
                "urlChuongTrinhDaoTao": "https://daotao.ptit.edu.vn/nganhhoc/7480201",
                "urlAnhDaiDien": "https://apituyensinhptit.aisenote.com/images/anhDaiDien-1591417516745-cntt.png"
            },
            "id": "5ee344bb8f95f30cbc9df847"
        },
        {
            "_id": "5ee344c68f95f30cbc9df848",
            "kyHieuTruong": "BVH",
            "namHoc": 2023,
            "maNganh": "7480202",
            "chiTieuTheoKetQuaThiTHPT": 140,
            "chiTieuTheoPhuongThucKetHop": 75,
            "createdAt": "2020-06-12T09:03:02.154Z",
            "updatedAt": "2023-03-30T09:14:12.620Z",
            "__v": 0,
            "phanTramTroi": 230,
            "thuTu": 2,
            "diemSanTheoPhuongThucKetHop": 27.21,
            "chiTieuTheoDGNL": 45,
            "chiTieu": 215,
            "nganhHoc": {
                "toHop": [
                    "A00",
                    "A01"
                ],
                "_id": "5edb1b78a01f004b8ad785a0",
                "maNganh": "7480202",
                "tenNganh": "An toàn thông tin",
                "moTa": "<p></p>",
                "urlChuongTrinhDaoTao": "https://daotao.ptit.edu.vn/nganhhoc/7480202",
                "urlAnhDaiDien": "https://apituyensinhptit.aisenote.com/images/anhDaiDien-1591417720436-attt.png"
            },
            "id": "5ee344c68f95f30cbc9df848"
        },
        {
            "_id": "5ee3449e8f95f30cbc9df845",
            "kyHieuTruong": "BVH",
            "namHoc": 2023,
            "maNganh": "7520207",
            "chiTieuTheoKetQuaThiTHPT": 100,
            "chiTieuTheoPhuongThucKetHop": 165,
            "createdAt": "2020-06-12T09:02:22.670Z",
            "updatedAt": "2023-07-19T09:18:04.654Z",
            "__v": 0,
            "phanTramTroi": 230,
            "thuTu": 3,
            "diemSanTheoPhuongThucKetHop": 25.32,
            "chiTieuTheoDGNL": 85,
            "chiTieu": 265,
            "nganhHoc": {
                "toHop": [
                    "A00",
                    "A01"
                ],
                "_id": "5edb1d0ea01f004b8ad785a6",
                "maNganh": "7520207",
                "tenNganh": "Kỹ thuật Điện tử viễn thông",
                "moTa": "<p></p>",
                "urlChuongTrinhDaoTao": "https://daotao.ptit.edu.vn/nganhhoc/7520207",
                "urlAnhDaiDien": "https://apituyensinhptit.aisenote.com/images/anhDaiDien-1591418126335-attt.png"
            },
            "id": "5ee3449e8f95f30cbc9df845"
        },
        {
            "_id": "5ee344ae8f95f30cbc9df846",
            "kyHieuTruong": "BVH",
            "namHoc": 2023,
            "maNganh": "7510301",
            "chiTieuTheoKetQuaThiTHPT": 95,
            "chiTieuTheoPhuongThucKetHop": 80,
            "createdAt": "2020-06-12T09:02:38.342Z",
            "updatedAt": "2023-07-19T09:18:47.361Z",
            "__v": 0,
            "phanTramTroi": 87,
            "thuTu": 4,
            "diemSanTheoPhuongThucKetHop": 23.58,
            "chiTieuTheoDGNL": 45,
            "chiTieu": 175,
            "nganhHoc": {
                "toHop": [
                    "A00",
                    "A01"
                ],
                "_id": "5edb1d64a01f004b8ad785a7",
                "maNganh": "7510301",
                "tenNganh": "Công nghệ kỹ thuật Điện điện tử",
                "moTa": "<p></p>",
                "urlChuongTrinhDaoTao": "https://daotao.ptit.edu.vn/nganhhoc/7510301",
                "urlAnhDaiDien": "https://apituyensinhptit.aisenote.com/images/anhDaiDien-1591418212667-cn.png"
            },
            "id": "5ee344ae8f95f30cbc9df846"
        },
        {
            "_id": "5ee344d28f95f30cbc9df849",
            "kyHieuTruong": "BVH",
            "namHoc": 2023,
            "maNganh": "7329001",
            "chiTieuTheoKetQuaThiTHPT": 120,
            "chiTieuTheoPhuongThucKetHop": 65,
            "createdAt": "2020-06-12T09:03:14.358Z",
            "updatedAt": "2023-03-30T09:11:54.432Z",
            "__v": 0,
            "phanTramTroi": 230,
            "thuTu": 5,
            "diemSanTheoPhuongThucKetHop": 25.81,
            "chiTieuTheoDGNL": 35,
            "chiTieu": 185,
            "nganhHoc": {
                "toHop": [
                    "A00",
                    "A01",
                    "D01"
                ],
                "_id": "5edb1de1a01f004b8ad785a8",
                "maNganh": "7329001",
                "tenNganh": "Công nghệ đa phương tiện",
                "moTa": "<p></p>",
                "urlChuongTrinhDaoTao": "https://daotao.ptit.edu.vn/nganhhoc/7329001",
                "urlAnhDaiDien": "https://apituyensinhptit.aisenote.com/images/anhDaiDien-1591418337536-download.png"
            },
            "id": "5ee344d28f95f30cbc9df849"
        },
        {
            "_id": "5ee344dc8f95f30cbc9df84a",
            "kyHieuTruong": "BVH",
            "namHoc": 2023,
            "maNganh": "7320104",
            "chiTieuTheoKetQuaThiTHPT": 70,
            "chiTieuTheoPhuongThucKetHop": 40,
            "createdAt": "2020-06-12T09:03:24.811Z",
            "updatedAt": "2023-03-30T09:16:24.235Z",
            "__v": 0,
            "phanTramTroi": 230,
            "thuTu": 6,
            "diemSanTheoPhuongThucKetHop": 26.93,
            "chiTieuTheoDGNL": 20,
            "chiTieu": 110,
            "nganhHoc": {
                "toHop": [
                    "A00",
                    "A01",
                    "D01"
                ],
                "_id": "5edb1eaea01f004b8ad785ae",
                "maNganh": "7320104",
                "tenNganh": "Truyền thông đa phương tiện",
                "moTa": "<p></p>",
                "urlChuongTrinhDaoTao": "https://daotao.ptit.edu.vn/nganhhoc/7320104",
                "urlAnhDaiDien": "https://apituyensinhptit.aisenote.com/images/anhDaiDien-1591418542857-tt.png"
            },
            "id": "5ee344dc8f95f30cbc9df84a"
        },
        {
            "_id": "5ee344f08f95f30cbc9df84c",
            "kyHieuTruong": "BVH",
            "namHoc": 2023,
            "maNganh": "7340115",
            "chiTieuTheoKetQuaThiTHPT": 150,
            "chiTieuTheoPhuongThucKetHop": 80,
            "createdAt": "2020-06-12T09:03:44.770Z",
            "updatedAt": "2023-03-30T09:13:45.926Z",
            "__v": 0,
            "phanTramTroi": 230,
            "thuTu": 7,
            "diemSanTheoPhuongThucKetHop": 25.97,
            "chiTieuTheoDGNL": 40,
            "chiTieu": 230,
            "nganhHoc": {
                "toHop": [
                    "A00",
                    "A01",
                    "D01"
                ],
                "_id": "5edb1fa3a01f004b8ad785b2",
                "maNganh": "7340115",
                "tenNganh": "Marketing",
                "moTa": "<p></p>",
                "urlChuongTrinhDaoTao": "https://daotao.ptit.edu.vn/nganhhoc/7340115",
                "urlAnhDaiDien": "https://apituyensinhptit.aisenote.com/images/anhDaiDien-1591418787350-mar.png"
            },
            "id": "5ee344f08f95f30cbc9df84c"
        },
        {
            "_id": "5ee344e68f95f30cbc9df84b",
            "kyHieuTruong": "BVH",
            "namHoc": 2023,
            "maNganh": "7340101",
            "chiTieuTheoKetQuaThiTHPT": 115,
            "chiTieuTheoPhuongThucKetHop": 65,
            "createdAt": "2020-06-12T09:03:34.629Z",
            "updatedAt": "2023-03-30T09:16:02.815Z",
            "__v": 0,
            "phanTramTroi": 230,
            "thuTu": 8,
            "diemSanTheoPhuongThucKetHop": 24.97,
            "chiTieuTheoDGNL": 30,
            "chiTieu": 180,
            "nganhHoc": {
                "toHop": [
                    "A00",
                    "A01",
                    "D01"
                ],
                "_id": "5edb1f17a01f004b8ad785b0",
                "maNganh": "7340101",
                "tenNganh": "Quản trị kinh doanh",
                "moTa": "<p></p>",
                "urlChuongTrinhDaoTao": "https://daotao.ptit.edu.vn/nganhhoc/7340101",
                "urlAnhDaiDien": "https://apituyensinhptit.aisenote.com/images/anhDaiDien-1591418647310-qt.png"
            },
            "id": "5ee344e68f95f30cbc9df84b"
        },
        {
            "_id": "5ee344fc8f95f30cbc9df84d",
            "kyHieuTruong": "BVH",
            "namHoc": 2023,
            "maNganh": "7340301",
            "chiTieuTheoKetQuaThiTHPT": 100,
            "chiTieuTheoPhuongThucKetHop": 55,
            "createdAt": "2020-06-12T09:03:56.151Z",
            "updatedAt": "2023-03-30T09:15:34.350Z",
            "__v": 0,
            "phanTramTroi": 85,
            "thuTu": 9,
            "diemSanTheoPhuongThucKetHop": 23.46,
            "chiTieuTheoDGNL": 25,
            "chiTieu": 155,
            "nganhHoc": {
                "toHop": [
                    "A00",
                    "A01",
                    "D01"
                ],
                "_id": "5edb1f4fa01f004b8ad785b1",
                "maNganh": "7340301",
                "tenNganh": "Kế toán",
                "moTa": "<p></p>",
                "urlChuongTrinhDaoTao": "https://daotao.ptit.edu.vn/nganhhoc/7340301",
                "urlAnhDaiDien": "https://apituyensinhptit.aisenote.com/images/anhDaiDien-1591418703356-kt.png"
            },
            "id": "5ee344fc8f95f30cbc9df84d"
        },
        {
            "_id": "5ee345068f95f30cbc9df84e",
            "kyHieuTruong": "BVH",
            "namHoc": 2023,
            "maNganh": "7340122",
            "chiTieuTheoKetQuaThiTHPT": 70,
            "chiTieuTheoPhuongThucKetHop": 40,
            "createdAt": "2020-06-12T09:04:06.927Z",
            "updatedAt": "2023-03-30T09:15:00.549Z",
            "__v": 0,
            "phanTramTroi": 230,
            "thuTu": 10,
            "diemSanTheoPhuongThucKetHop": 26.42,
            "chiTieuTheoDGNL": 20,
            "chiTieu": 110,
            "nganhHoc": {
                "toHop": [
                    "A00",
                    "A01",
                    "D01"
                ],
                "_id": "5edb1535a01f004b8ad78599",
                "quyTrinhDaoTao": "Quy trình đào tạo:  Chương trình đào tạo được thực hiện trong 4 năm gồm 8 học kỳ, trong đó 7 học kỳ tích lũy kiến thức tại Học viện và 1 kỳ thực tập thực tế tại cơ sở. Cuối khóa sinh viên làm đồ án tốt nghiệp hoặc thi tốt nghiệp. Sinh viên được đào tạo theo học chế tín chỉ áp dụng quy chế, quy địnhđào tạo đại học, cao đẳng hệ chính quy theo học chế tín chỉ hiện hành của Bộ Giáo dục & Đào tạo và của Học viện. Công nhận tốt nghiệp:  Kết thúc khóa học, sinh viên được công nhận tốt nghiệp và cấp bằng Đại học chính quy khi hội đủ các tiêu chuẩn theo Quy chế đào tạo đại học, cao đẳng hệ chính quy theo học chế tín chỉ.",
                "iconDaiDien": "",
                "dieuKienTotNghiep": "",
                "hocPhanTienQuyet": "",
                "tenNganh": "Thương mại điện tử",
                "khoiLuongKienThucToanKhoa": "130 tín chỉ (không bao gồm Giáo dục thể chất, Giáo dục quốc phòng và Kỹ năng mềm)",
                "doiTuongTuyenSinh": "Học sinh tốt nghiệp THPT hoặc tương đương, tham dự và trúng tuyển trong kỳ thi tuyển sinh đại học, cao đẳng chính quy – Tổ hợp môn thi: Toán, lý, hóa (Khối A) hoặc Toán, lý, anh văn (Khối A1) hoặc Toán, văn, anh văn (Khối D1).",
                "thoiGianDaoTao": "4 năm",
                "maNganh": "7340122",
                "urlChuongTrinhDaoTao": "https://daotao.ptit.edu.vn/nganhhoc/7340122",
                "tienTrinhHocTapChuan": "theo hệ đào tạo DHCQ",
                "moTa": "<p></p>",
                "mucTieuDaoTao": "Về kiến thức:  Kiến thức giáo dục đại cương Sinh viên được trang bị các kiến thức giáo dục đại cương về Lý luận của Chủ nghĩa Mác Lênin và Tư tưởng Hồ Chí Minh, Khoa học tự nhiên, Khoa học xã hội và nhân văn; Kinh tế xã hội.  Kiến thức cơ sở ngành và ngành Sinh viên ra trường nắm vững những kiến thức cơ bản và hiện đại về kinh tế-xã hội, quản trị kinh doanh, thông qua các môn học như kinh tế học, xác suất thống kê, marketing, luật kinh doanh.  Kiến thức chuyên ngành Sinh viên ra trường được trang bị kiến thức chuyên sâu về ngành kế toán thông qua các môn học như qui trình công nghệ kế toán, kiểm toán, phân tích hoạt động kinh doanh; kế toán quản trị, tài chính, phân tích tài chính, thuế, kiểm toán.  Về kỹ năng:  Nắm vững luận cứ và thực thi quy trình công nghệ kế toán; Nắm vững luận cứ và thực thi quy trình công nghệ kiểm toán cơ bản; Nắm vững nghiệp vụ kế toán trong doanh nghiệp; Kỹ năng nghiệp vụ kế toán trong doanh nghiệp; Nắm vững các chuẩn mực kế toán của Việt Nam; Hiểu biết về các nguyên lý kế toán và chuẩn mực kế toán quốc tế, tương đương trình độ ACCA và CFA cấp độ căn bản. Kỹ năng mềm:  Sinh viên có phương pháp làm việc khoa học và chuyên nghiệp, tư duy hệ thống và tư duy phân tích, khả năng trình bày, khả năng giao tiếp và làm việc hiệu quả trong nhóm (đa ngành), hội nhập được trong môi trường quốc tế.  Về năng lực:  Sau khi tốt nghiệp sinh viên có thể đảm nhận tốt các vị trí tại các bộ phận chức năng kế toán, kiểm toán ở các doanh nghiệp; các Bộ, ngành và các cơ quan nhà nước; các đơn vị liên doanh liên kết; các ngân hàng hoặc các tổ chức quốc tế; Có khả năng đảm đương hoặc tham gia các hoạt động hoạch định chính sách kế toán/kiểm toán, và tổ chức công tác kế toán tại các doanh nghiệp; Có thể tự tạo lập doanh nghiệp và tìm kiến cơ hội kinh doanh riêng cho bản thân. Có thể trở thành cán bộ nghiên cứu, cán bộ giảng dạy về kế toán, kiểm toán tại các Viện, Trung tâm nghiên cứu, các cơ sở đào tạo; Có thể tiếp tục học tiếp lên trình độ Sau đại học trong nước hoặc ở nước ngoài. Có thể làm việc tại các vị trí cụ thể:  Các Tổng cục, Cục, Vụ: Tổng cục Thuế, Cục Thuế, Cục Tài chính doanh nghiệp, Cục Tin học và thống kê tài chính; Vụ Tài chính, Vụ Chế độ kế toán và kiểm toán, Vụ Tài chính các ngân hàng và tổ chức tài chính, Vụ Tài chính hành chính sự nghiệp, Vụ Chính sách thuế Các nhà máy, Công ty, Tổng công ty, Tập đoàn trên địa bàn toàn quốc hoạt động trên khắp các lĩnh vực đặc biệt trong lĩnh vực ngân hàng; Tập đoàn Bưu chính viễn thông Việt Nam (VNPT), Tập đoàn Điện lực Việt Nam (EVN), Tập đoàn viễn thông quân đội (VIETEL), Tập đoàn Bảo Việt, Hệ thống các ngân hàng, kho bạc nhà nước từ trung ương đến địa phương… và các đơn vị trực thuộc …; Các phòng chức năng: Kế toán, Quản lý ngân sách… tại các Sở: Sở Tài chính, Sở Công thương, các Chi cục Thuế… ở các tỉnh, thành phố; Các cơ quan, đơn vị chính sách thực hiện soạn thảo văn bản pháp lý về kế toán, kiểm toán nói riêng và về kinh tế quản lý nói chung, các cơ quan kiểm tra tài chính …; Về hành vi đạo đức:  Có phẩm chất đạo đức tốt, tính kỷ luật cao, biết làm việc tập thể theo nhóm, theo dự án, say mê khoa học, luôn tự rèn luyện nâng cao phẩm chất chính trị và năng lực chuyên môn. Hiểu biết về các giá trị đạo đức và nghề nghiệp, ý thức về những vấn đề đương đại, hiểu rõ vai trò của các giải pháp quản trị doanh nghiệp trong bối cảnh kinh tế, môi trường, xã hội toàn cầu và trong bối cảnh riêng của đất nước. Ý thức được sự cần thiết phải thường xuyên học tập nâng cao trình độ, có năng lực chuyên môn và khả năng ngoại ngữ để tự học suốt đời. Về ngoại ngữ:  Sau khi tốt nghiệp, sinh viên có năng lực tiếng Anh tương đương với trình độ B1 khung tham chiếu chung Châu Âu (CEFR) hay Bậc 3 theo khung năng lực ngoại ngữ 6 bậc dùng cho Việt Nam. Có khả năng sử dụng tiếng Anh tốt trong các hoạt động liên quan đến nghề nghiệp được đào tạo.",
                "thangDiem": "Theo thang điểm tín chỉ.",
                "noiDungChuongTrinh": "đào tạo hệ ĐHCQ",
                "urlAnhDaiDien": "https://apituyensinhptit.aisenote.com/images/anhDaiDien-1591418811400-tm.png"
            },
            "id": "5ee345068f95f30cbc9df84e"
        },
        {
            "_id": "607678893f11ae28c03cc24c",
            "kyHieuTruong": "BVH",
            "namHoc": 2023,
            "maNganh": "7340205",
            "chiTieuTheoKetQuaThiTHPT": 65,
            "chiTieuTheoPhuongThucKetHop": 35,
            "createdAt": "2020-06-12T09:05:57.345Z",
            "updatedAt": "2023-03-30T09:17:51.136Z",
            "__v": 0,
            "phanTramTroi": 230,
            "thuTu": 20,
            "diemSanTheoPhuongThucKetHop": 26.24,
            "chiTieuTheoDGNL": 20,
            "chiTieu": 100,
            "nganhHoc": {
                "toHop": [
                    "A00",
                    "A01",
                    "D01"
                ],
                "_id": "60767b713f11ae28c03cc9e6",
                "maNganh": "7340205",
                "tenNganh": "Công nghệ tài chính",
                "moTa": "<p></p>",
                "urlChuongTrinhDaoTao": "https://daotao.ptit.edu.vn/nganhhoc/7340205",
                "urlAnhDaiDien": "https://apituyensinhptit.aisenote.com/images/anhDaiDien-1591417516745-cntt.png"
            },
            "id": "607678893f11ae28c03cc24c"
        },
        {
            "_id": "64b7aadaafd4c8c1d72f4978",
            "kyHieuTruong": "BVH",
            "namHoc": 2023,
            "maNganh": "7520216",
            "chiTieuTheoKetQuaThiTHPT": 60,
            "chiTieuTheoPhuongThucKetHop": 0,
            "chiTieuTheoDGNL": 0,
            "thuTu": 20,
            "createdAt": "2023-07-19T09:20:26.168Z",
            "updatedAt": "2023-07-19T09:20:26.168Z",
            "__v": 0,
            "chiTieu": 60,
            "nganhHoc": {
                "toHop": [
                    "A00",
                    "A01"
                ],
                "_id": "6065ed96a538412521c7a0c8",
                "maNganh": "7520216",
                "tenNganh": "Kỹ thuật Điều khiển và Tự động hoá",
                "urlChuongTrinhDaoTao": "https://daotao.ptit.edu.vn/nganhhoc/7520216",
                "urlAnhDaiDien": "https://apiquanlydaotao.ptit.edu.vn/images/anhDaiDien-1620814196904-avatar.jpg"
            },
            "id": "64b7aadaafd4c8c1d72f4978"
        },
        {
            "_id": "62cbce295f54b19250c71e4f",
            "kyHieuTruong": "BVH",
            "namHoc": 2023,
            "maNganh": "7480101",
            "chiTieuTheoKetQuaThiTHPT": 70,
            "chiTieuTheoPhuongThucKetHop": 40,
            "chiTieuTheoDGNL": 20,
            "thuTu": 21,
            "createdAt": "2022-07-11T07:15:53.524Z",
            "updatedAt": "2023-03-30T09:12:56.000Z",
            "__v": 0,
            "chiTieu": 110,
            "nganhHoc": {
                "toHop": [
                    "A00",
                    "A01"
                ],
                "_id": "62cbcb3951b67b921ae061e8",
                "maNganh": "7480101",
                "tenNganh": "Khoa học máy tính",
                "urlChuongTrinhDaoTao": "https://daotao.ptit.edu.vn/nganhhoc/7480101",
                "urlAnhDaiDien": "https://apiquanlydaotao.ptit.edu.vn/images/anhDaiDien-1657523001006-anhdaidien_1657093779161__nh_ch_nh_quy.jpg"
            },
            "id": "62cbce295f54b19250c71e4f"
        },
        {
            "_id": "62d2dc195f54b19250c71e59",
            "kyHieuTruong": "BVH",
            "namHoc": 2023,
            "maNganh": "7320101",
            "chiTieuTheoKetQuaThiTHPT": 35,
            "chiTieuTheoPhuongThucKetHop": 20,
            "chiTieuTheoDGNL": 10,
            "thuTu": 23,
            "createdAt": "2022-07-16T15:41:13.926Z",
            "updatedAt": "2023-03-30T09:11:30.197Z",
            "__v": 0,
            "chiTieu": 55,
            "nganhHoc": {
                "toHop": [
                    "A00",
                    "A01",
                    "D01"
                ],
                "_id": "62d28d5a5f54b19250c71e57",
                "maNganh": "7320101",
                "tenNganh": "Báo chí",
                "urlChuongTrinhDaoTao": "https://daotao.ptit.edu.vn/nganhhoc/7320101",
                "urlAnhDaiDien": "https://apiquanlydaotao.ptit.edu.vn/images/anhDaiDien-1657965914521-logo_ptit_university.png"
            },
            "id": "62d2dc195f54b19250c71e59"
        },
        {
            "_id": "64b88f15334062c1c9a5a88d",
            "kyHieuTruong": "BVH",
            "namHoc": 2023,
            "maNganh": "7480201_CLC",
            "chiTieuTheoKetQuaThiTHPT": 100,
            "chiTieuTheoPhuongThucKetHop": 0,
            "chiTieuTheoDGNL": 0,
            "thuTu": 23,
            "createdAt": "2023-07-20T01:34:13.330Z",
            "updatedAt": "2023-07-20T01:34:13.330Z",
            "__v": 0,
            "chiTieu": 100,
            "nganhHoc": {
                "toHop": [
                    "A00",
                    "A01"
                ],
                "_id": "64b7b7d4334062c1c9a5a882",
                "maNganh": "7480201_CLC",
                "tenNganh": "Công nghệ thông tin chất lượng cao",
                "urlChuongTrinhDaoTao": "https://daotao.ptit.edu.vn/nganhhoc/7480201(CLC)",
                "urlAnhDaiDien": "https://apiquanlydaotao.ptit.edu.vn/images/anhDaiDien-1689761748801-2.png"
            },
            "id": "64b88f15334062c1c9a5a88d"
        },
        {
            "_id": "64b88eea334062c1c9a5a88c",
            "kyHieuTruong": "BVH",
            "namHoc": 2023,
            "maNganh": "7480201_UDU",
            "chiTieuTheoKetQuaThiTHPT": 180,
            "chiTieuTheoPhuongThucKetHop": 0,
            "chiTieuTheoDGNL": 0,
            "thuTu": 24,
            "createdAt": "2023-07-20T01:33:30.978Z",
            "updatedAt": "2023-07-20T01:33:30.978Z",
            "__v": 0,
            "chiTieu": 180,
            "nganhHoc": {
                "toHop": [
                    "A00",
                    "A01"
                ],
                "_id": "64b7b7ac8dab4dc1cf4c1777",
                "maNganh": "7480201_UDU",
                "tenNganh": "Công nghệ thông tin",
                "urlChuongTrinhDaoTao": "https://daotao.ptit.edu.vn/nganhhoc/7480201_UDU",
                "urlAnhDaiDien": "https://apiquanlydaotao.ptit.edu.vn/images/anhDaiDien-1689761708887-2.png"
            },
            "id": "64b88eea334062c1c9a5a88c"
        },
        {
            "_id": "64b7aea28dab4dc1cf4c1776",
            "kyHieuTruong": "BVH",
            "namHoc": 2023,
            "maNganh": "7480102",
            "chiTieuTheoKetQuaThiTHPT": 80,
            "chiTieuTheoPhuongThucKetHop": 0,
            "chiTieuTheoDGNL": 0,
            "thuTu": 51,
            "createdAt": "2023-07-19T09:36:34.297Z",
            "updatedAt": "2023-07-19T09:36:34.297Z",
            "__v": 0,
            "chiTieu": 80,
            "nganhHoc": {
                "toHop": [
                    "A00",
                    "A01"
                ],
                "_id": "64b7adff91eb38c1d8aaf4c4",
                "maNganh": "7480102",
                "tenNganh": "Mạng máy tính và truyền thông dữ liệu",
                "urlChuongTrinhDaoTao": "https://daotao.ptit.edu.vn/nganhhoc/7480102",
                "urlAnhDaiDien": "https://apiquanlydaotao.ptit.edu.vn/images/anhDaiDien-1689759231280-2.png"
            },
            "id": "64b7aea28dab4dc1cf4c1776"
        }
    ],
    "message": "GET OK",
    "statusCode": 200
}